**DIRAC                                                                                             
.ANALYZE                                                                                            
.WAVE FUNCTION                                                                                      
**INTEGRALS
*READIN
.UNCONT
**WAVE FUNCTION                                                                                     
.SCF                                                                                                
*SCF
.CLOSED SHELL                                                                                                
106
**END OF
