**DIRAC
.WAVE FUNCTION
.ANALYZE
**GENERAL
.ACMOUT
**HAMILTONIAN
.DFTAUTO
 PBE0
**INTEGRALS
*READIN
.UNCONTRACT
**WAVE FUNCTIONS
.SCF
*SCF
.CLOSED SHELL
 6 6
.OPEN SHELL
 1
 5/0,6
**ANALYZE
.MULPOP
*MULPOP
.VECPOP
 1..oo
 1..oo
*END OF
