**DIRAC
.WAVE FUNC
**INTEGRALS
*READIN
.UNCONT
**HAMILTONIAN
.DFTAUTO
 PBE0
**WAVE FUN
.SCF
*SCF
.CLOSED SHELL
 170
.ATOMST
DFUXXX 2
1..43
1.00
44..50
0.214
DFCLXX 2
1..6
1.00
7..9
0.833
DFFXXX 2
1,2
1.00
3..5
0.83
**END OF
