**DIRAC
.PROPERTIES
**GENERAL
.RKBIMP
**HAMILTONIAN
.URKBAL
.DFT
 LDA
**GRID
.IMPORT
numerical_grid
**INTEGRALS
.NUCMOD
1
*READIN
.UNCONTRACT
**WAVE FUNCTIONS
.SCF
*SCF
.EVCCNV
 1.0D-08 1.0D-7
**PROPERTIES
.PRINT
2
.SHIELDING
*NMR
.LONDON
.SYMCON
.EXPPED
*LINEAR
.PRINT
2
.THRESH
1.0D-08
*END OF

